EESchema Schematic File Version 2
LIBS:skyhigh-parts
LIBS:power
LIBS:device
LIBS:transistors
LIBS:conn
LIBS:linear
LIBS:regul
LIBS:74xx
LIBS:cmos4000
LIBS:adc-dac
LIBS:memory
LIBS:xilinx
LIBS:microcontrollers
LIBS:dsp
LIBS:microchip
LIBS:analog_switches
LIBS:motorola
LIBS:texas
LIBS:intel
LIBS:audio
LIBS:interface
LIBS:digital-audio
LIBS:philips
LIBS:display
LIBS:cypress
LIBS:siliconi
LIBS:opto
LIBS:atmel
LIBS:contrib
LIBS:valves
LIBS:MF_Aesthetics
LIBS:MF_Connectors
LIBS:MF_Discrete_Semiconductor
LIBS:MF_Displays
LIBS:MF_Frequency_Control
LIBS:MF_IC_Analog
LIBS:MF_IC_Digital
LIBS:MF_IC_Power
LIBS:MF_LEDs
LIBS:MF_Passives
LIBS:MF_Sensors
LIBS:MF_Switches
LIBS:current-mon-rpihat-cache
EELAYER 25 0
EELAYER END
$Descr USLetter 11000 8500
encoding utf-8
Sheet 1 1
Title "Current / Voltage / 1-wire RPi Hat (CV1)"
Date "2016-10-22"
Rev "A"
Comp "SkyHigh Design"
Comment1 ""
Comment2 "Copyright 2016, Gregory Sadowy"
Comment3 ""
Comment4 ""
$EndDescr
$Comp
L INA209 U1
U 1 1 57B0C023
P 1150 3450
F 0 "U1" H 1700 3650 60  0000 C CNN
F 1 "INA209" H 1700 3550 60  0000 C CNN
F 2 "Housings_SSOP:TSSOP-16_4.4x5mm_Pitch0.65mm" H 1450 3650 60  0001 C CNN
F 3 "" H 1450 3650 60  0001 C CNN
	1    1150 3450
	1    0    0    -1  
$EndComp
$Comp
L INA209 U2
U 1 1 57B0C024
P 3650 3350
F 0 "U2" H 4200 3550 60  0000 C CNN
F 1 "INA209" H 4200 3450 60  0000 C CNN
F 2 "Housings_SSOP:TSSOP-16_4.4x5mm_Pitch0.65mm" H 3950 3550 60  0001 C CNN
F 3 "" H 3950 3550 60  0001 C CNN
	1    3650 3350
	1    0    0    -1  
$EndComp
$Comp
L INA209 U5
U 1 1 57B0C025
P 6350 3450
F 0 "U5" H 6900 3650 60  0000 C CNN
F 1 "INA209" H 6900 3550 60  0000 C CNN
F 2 "Housings_SSOP:TSSOP-16_4.4x5mm_Pitch0.65mm" H 6650 3650 60  0001 C CNN
F 3 "" H 6650 3650 60  0001 C CNN
	1    6350 3450
	1    0    0    -1  
$EndComp
$Comp
L INA209 U7
U 1 1 57B0C026
P 8550 2900
F 0 "U7" H 9100 3100 60  0000 C CNN
F 1 "INA209" H 9100 3000 60  0000 C CNN
F 2 "Housings_SSOP:TSSOP-16_4.4x5mm_Pitch0.65mm" H 8850 3100 60  0001 C CNN
F 3 "" H 8850 3100 60  0001 C CNN
	1    8550 2900
	1    0    0    -1  
$EndComp
$Comp
L GND #PWR01
U 1 1 57B0C02B
P 2800 3950
F 0 "#PWR01" H 2800 3700 50  0001 C CNN
F 1 "GND" H 2800 3800 50  0000 C CNN
F 2 "" H 2800 3950 50  0000 C CNN
F 3 "" H 2800 3950 50  0000 C CNN
	1    2800 3950
	1    0    0    -1  
$EndComp
$Comp
L GND #PWR02
U 1 1 57B0C02C
P 5300 3850
F 0 "#PWR02" H 5300 3600 50  0001 C CNN
F 1 "GND" H 5300 3700 50  0000 C CNN
F 2 "" H 5300 3850 50  0000 C CNN
F 3 "" H 5300 3850 50  0000 C CNN
	1    5300 3850
	1    0    0    -1  
$EndComp
$Comp
L GND #PWR03
U 1 1 57B0C02D
P 8000 3950
F 0 "#PWR03" H 8000 3700 50  0001 C CNN
F 1 "GND" H 8000 3800 50  0000 C CNN
F 2 "" H 8000 3950 50  0000 C CNN
F 3 "" H 8000 3950 50  0000 C CNN
	1    8000 3950
	1    0    0    -1  
$EndComp
$Comp
L GND #PWR04
U 1 1 57B0C02E
P 10100 3400
F 0 "#PWR04" H 10100 3150 50  0001 C CNN
F 1 "GND" H 10100 3250 50  0000 C CNN
F 2 "" H 10100 3400 50  0000 C CNN
F 3 "" H 10100 3400 50  0000 C CNN
	1    10100 3400
	1    0    0    -1  
$EndComp
$Comp
L +3.3V #PWR05
U 1 1 57B0C031
P 950 3850
F 0 "#PWR05" H 950 3700 50  0001 C CNN
F 1 "+3.3V" H 950 3990 50  0000 C CNN
F 2 "" H 950 3850 50  0000 C CNN
F 3 "" H 950 3850 50  0000 C CNN
	1    950  3850
	1    0    0    -1  
$EndComp
$Comp
L +3.3V #PWR06
U 1 1 57B0C032
P 3400 3750
F 0 "#PWR06" H 3400 3600 50  0001 C CNN
F 1 "+3.3V" H 3400 3890 50  0000 C CNN
F 2 "" H 3400 3750 50  0000 C CNN
F 3 "" H 3400 3750 50  0000 C CNN
	1    3400 3750
	1    0    0    -1  
$EndComp
$Comp
L +3.3V #PWR07
U 1 1 57B0C033
P 6050 3850
F 0 "#PWR07" H 6050 3700 50  0001 C CNN
F 1 "+3.3V" H 6050 3990 50  0000 C CNN
F 2 "" H 6050 3850 50  0000 C CNN
F 3 "" H 6050 3850 50  0000 C CNN
	1    6050 3850
	1    0    0    -1  
$EndComp
$Comp
L +3.3V #PWR08
U 1 1 57B0C034
P 8300 3300
F 0 "#PWR08" H 8300 3150 50  0001 C CNN
F 1 "+3.3V" H 8300 3440 50  0000 C CNN
F 2 "" H 8300 3300 50  0000 C CNN
F 3 "" H 8300 3300 50  0000 C CNN
	1    8300 3300
	1    0    0    -1  
$EndComp
$Comp
L +3.3V #PWR09
U 1 1 57B0C035
P 9950 3500
F 0 "#PWR09" H 9950 3350 50  0001 C CNN
F 1 "+3.3V" H 9950 3640 50  0000 C CNN
F 2 "" H 9950 3500 50  0000 C CNN
F 3 "" H 9950 3500 50  0000 C CNN
	1    9950 3500
	1    0    0    1   
$EndComp
$Comp
L +3.3V #PWR010
U 1 1 57B0C036
P 7800 4050
F 0 "#PWR010" H 7800 3900 50  0001 C CNN
F 1 "+3.3V" H 7800 4190 50  0000 C CNN
F 2 "" H 7800 4050 50  0000 C CNN
F 3 "" H 7800 4050 50  0000 C CNN
	1    7800 4050
	-1   0    0    1   
$EndComp
$Comp
L +3.3V #PWR011
U 1 1 57B0C037
P 5100 3950
F 0 "#PWR011" H 5100 3800 50  0001 C CNN
F 1 "+3.3V" H 5100 4090 50  0000 C CNN
F 2 "" H 5100 3950 50  0000 C CNN
F 3 "" H 5100 3950 50  0000 C CNN
	1    5100 3950
	1    0    0    1   
$EndComp
$Comp
L +3.3V #PWR012
U 1 1 57B0C038
P 2600 4050
F 0 "#PWR012" H 2600 3900 50  0001 C CNN
F 1 "+3.3V" H 2600 4190 50  0000 C CNN
F 2 "" H 2600 4050 50  0000 C CNN
F 3 "" H 2600 4050 50  0000 C CNN
	1    2600 4050
	1    0    0    1   
$EndComp
$Comp
L GND #PWR013
U 1 1 57B0C039
P 1100 3750
F 0 "#PWR013" H 1100 3500 50  0001 C CNN
F 1 "GND" H 1100 3600 50  0000 C CNN
F 2 "" H 1100 3750 50  0000 C CNN
F 3 "" H 1100 3750 50  0000 C CNN
	1    1100 3750
	1    0    0    1   
$EndComp
$Comp
L GND #PWR014
U 1 1 57B0C03A
P 3550 3650
F 0 "#PWR014" H 3550 3400 50  0001 C CNN
F 1 "GND" H 3550 3500 50  0000 C CNN
F 2 "" H 3550 3650 50  0000 C CNN
F 3 "" H 3550 3650 50  0000 C CNN
	1    3550 3650
	1    0    0    1   
$EndComp
$Comp
L GND #PWR015
U 1 1 57B0C03B
P 6250 3750
F 0 "#PWR015" H 6250 3500 50  0001 C CNN
F 1 "GND" H 6250 3600 50  0000 C CNN
F 2 "" H 6250 3750 50  0000 C CNN
F 3 "" H 6250 3750 50  0000 C CNN
	1    6250 3750
	1    0    0    1   
$EndComp
$Comp
L GND #PWR016
U 1 1 57B0C03C
P 8450 3200
F 0 "#PWR016" H 8450 2950 50  0001 C CNN
F 1 "GND" H 8450 3050 50  0000 C CNN
F 2 "" H 8450 3200 50  0000 C CNN
F 3 "" H 8450 3200 50  0000 C CNN
	1    8450 3200
	1    0    0    1   
$EndComp
$Comp
L GND #PWR017
U 1 1 57B0C03D
P 2500 3550
F 0 "#PWR017" H 2500 3300 50  0001 C CNN
F 1 "GND" H 2500 3400 50  0000 C CNN
F 2 "" H 2500 3550 50  0000 C CNN
F 3 "" H 2500 3550 50  0000 C CNN
	1    2500 3550
	1    0    0    -1  
$EndComp
Text Notes 1400 4300 0    60   ~ 0
ADX=1000000
Text Notes 3950 4200 0    60   ~ 0
ADX=1000001
Text Notes 6600 4300 0    60   ~ 0
ADX=1000010
Text Notes 8850 3750 0    60   ~ 0
ADX=1000011
$Comp
L +3.3V #PWR018
U 1 1 57B0C03E
P 4900 3550
F 0 "#PWR018" H 4900 3400 50  0001 C CNN
F 1 "+3.3V" H 4900 3690 50  0000 C CNN
F 2 "" H 4900 3550 50  0000 C CNN
F 3 "" H 4900 3550 50  0000 C CNN
	1    4900 3550
	0    1    1    0   
$EndComp
$Comp
L GND #PWR019
U 1 1 57B0C03F
P 7650 3550
F 0 "#PWR019" H 7650 3300 50  0001 C CNN
F 1 "GND" H 7650 3400 50  0000 C CNN
F 2 "" H 7650 3550 50  0000 C CNN
F 3 "" H 7650 3550 50  0000 C CNN
	1    7650 3550
	1    0    0    -1  
$EndComp
$Comp
L GND #PWR020
U 1 1 57B0C040
P 5200 3450
F 0 "#PWR020" H 5200 3200 50  0001 C CNN
F 1 "GND" H 5200 3300 50  0000 C CNN
F 2 "" H 5200 3450 50  0000 C CNN
F 3 "" H 5200 3450 50  0000 C CNN
	1    5200 3450
	1    0    0    1   
$EndComp
$Comp
L GND #PWR021
U 1 1 57B0C041
P 9850 3000
F 0 "#PWR021" H 9850 2750 50  0001 C CNN
F 1 "GND" H 9850 2850 50  0000 C CNN
F 2 "" H 9850 3000 50  0000 C CNN
F 3 "" H 9850 3000 50  0000 C CNN
	1    9850 3000
	1    0    0    -1  
$EndComp
Text GLabel 2400 3850 2    60   Input ~ 0
SCL
Text GLabel 7600 3850 2    60   Input ~ 0
SCL
Text GLabel 10250 3300 2    60   Input ~ 0
SCL
Text GLabel 2750 3750 2    60   Input ~ 0
SDA
Text GLabel 5200 3650 2    60   Input ~ 0
SDA
Text GLabel 7850 3750 2    60   Input ~ 0
SDA
Text GLabel 9950 3200 2    60   Input ~ 0
SDA
Text GLabel 1050 4050 0    60   Input ~ 0
Crit
Text GLabel 2350 4250 3    60   Input ~ 0
Warn
Text GLabel 3650 4150 3    60   Input ~ 0
OVL
Text GLabel 4850 4150 3    60   Input ~ 0
Warn
Text GLabel 3500 3950 0    60   Input ~ 0
Crit
Text GLabel 7550 4250 3    60   Input ~ 0
Warn
Text GLabel 6350 4250 3    60   Input ~ 0
OVL
Text GLabel 6200 4050 0    60   Input ~ 0
Crit
Text GLabel 9750 3700 3    60   Input ~ 0
Warn
Text GLabel 8550 3700 3    60   Input ~ 0
OVL
Text GLabel 8450 3500 0    60   Input ~ 0
Crit
Text GLabel 800  3650 0    60   Input ~ 0
CVT
Text GLabel 3250 3550 0    60   Input ~ 0
CVT
Text GLabel 4950 3750 2    60   Input ~ 0
SCL
Text GLabel 5900 3650 0    60   Input ~ 0
CVT
Text GLabel 7150 5600 3    60   Input ~ 0
ID_SDA
Text GLabel 7400 5600 3    60   Input ~ 0
ID_SCL
$Comp
L +3.3V #PWR022
U 1 1 57B0C04F
P 7400 5150
F 0 "#PWR022" H 7400 5000 50  0001 C CNN
F 1 "+3.3V" H 7400 5290 50  0000 C CNN
F 2 "" H 7400 5150 50  0000 C CNN
F 3 "" H 7400 5150 50  0000 C CNN
	1    7400 5150
	1    0    0    -1  
$EndComp
$Comp
L CAT24C32 U6
U 1 1 57B0DEFB
P 8050 5150
F 0 "U6" H 8450 5250 60  0000 C CNN
F 1 "CAT24C32" H 8450 5350 60  0000 C CNN
F 2 "Housings_SOIC:SOIC-8_3.9x4.9mm_Pitch1.27mm" H 8050 5150 60  0001 C CNN
F 3 "" H 8050 5150 60  0001 C CNN
	1    8050 5150
	1    0    0    -1  
$EndComp
$Comp
L RPi_GPIO J1
U 1 1 57B0E54B
P 2900 5100
F 0 "J1" H 3650 5350 60  0000 C CNN
F 1 "RPi_GPIO" H 3650 5250 60  0000 C CNN
F 2 "skyhigh:Pin_Header_Straight_2x20" H 2900 5100 60  0001 C CNN
F 3 "" H 2900 5100 60  0000 C CNN
	1    2900 5100
	1    0    0    -1  
$EndComp
Text Notes 3050 7350 0    60   Italic 0
Surface Mount Connector
Text GLabel 2700 5200 0    60   Input ~ 0
SDA
Text GLabel 2450 5300 0    60   Input ~ 0
SCL
$Comp
L GND #PWR023
U 1 1 57B0E54C
P 4800 6000
F 0 "#PWR023" H 4800 5750 50  0001 C CNN
F 1 "GND" H 4800 5850 50  0000 C CNN
F 2 "" H 4800 6000 50  0000 C CNN
F 3 "" H 4800 6000 50  0000 C CNN
	1    4800 6000
	1    0    0    -1  
$EndComp
$Comp
L GND #PWR024
U 1 1 57B0E54D
P 4800 5300
F 0 "#PWR024" H 4800 5050 50  0001 C CNN
F 1 "GND" H 4800 5150 50  0000 C CNN
F 2 "" H 4800 5300 50  0000 C CNN
F 3 "" H 4800 5300 50  0000 C CNN
	1    4800 5300
	1    0    0    -1  
$EndComp
$Comp
L GND #PWR025
U 1 1 57B0E54E
P 4800 5700
F 0 "#PWR025" H 4800 5450 50  0001 C CNN
F 1 "GND" H 4800 5550 50  0000 C CNN
F 2 "" H 4800 5700 50  0000 C CNN
F 3 "" H 4800 5700 50  0000 C CNN
	1    4800 5700
	1    0    0    -1  
$EndComp
$Comp
L GND #PWR026
U 1 1 57B0E54F
P 4800 6500
F 0 "#PWR026" H 4800 6250 50  0001 C CNN
F 1 "GND" H 4800 6350 50  0000 C CNN
F 2 "" H 4800 6500 50  0000 C CNN
F 3 "" H 4800 6500 50  0000 C CNN
	1    4800 6500
	1    0    0    -1  
$EndComp
$Comp
L GND #PWR027
U 1 1 57B0E550
P 4800 6700
F 0 "#PWR027" H 4800 6450 50  0001 C CNN
F 1 "GND" H 4800 6550 50  0000 C CNN
F 2 "" H 4800 6700 50  0000 C CNN
F 3 "" H 4800 6700 50  0000 C CNN
	1    4800 6700
	1    0    0    -1  
$EndComp
$Comp
L GND #PWR028
U 1 1 57B0E551
P 2500 5500
F 0 "#PWR028" H 2500 5250 50  0001 C CNN
F 1 "GND" H 2500 5350 50  0000 C CNN
F 2 "" H 2500 5500 50  0000 C CNN
F 3 "" H 2500 5500 50  0000 C CNN
	1    2500 5500
	1    0    0    -1  
$EndComp
$Comp
L GND #PWR029
U 1 1 57B0E552
P 2050 6300
F 0 "#PWR029" H 2050 6050 50  0001 C CNN
F 1 "GND" H 2050 6150 50  0000 C CNN
F 2 "" H 2050 6300 50  0000 C CNN
F 3 "" H 2050 6300 50  0000 C CNN
	1    2050 6300
	1    0    0    -1  
$EndComp
$Comp
L GND #PWR030
U 1 1 57B0E553
P 2450 7000
F 0 "#PWR030" H 2450 6750 50  0001 C CNN
F 1 "GND" H 2450 6850 50  0000 C CNN
F 2 "" H 2450 7000 50  0000 C CNN
F 3 "" H 2450 7000 50  0000 C CNN
	1    2450 7000
	1    0    0    -1  
$EndComp
$Comp
L +3.3V #PWR031
U 1 1 57B0E554
P 2700 5050
F 0 "#PWR031" H 2700 4900 50  0001 C CNN
F 1 "+3.3V" H 2700 5190 50  0000 C CNN
F 2 "" H 2700 5050 50  0000 C CNN
F 3 "" H 2700 5050 50  0000 C CNN
	1    2700 5050
	1    0    0    -1  
$EndComp
$Comp
L +3.3V #PWR032
U 1 1 57B0E555
P 2500 5900
F 0 "#PWR032" H 2500 5750 50  0001 C CNN
F 1 "+3.3V" H 2500 6040 50  0000 C CNN
F 2 "" H 2500 5900 50  0000 C CNN
F 3 "" H 2500 5900 50  0000 C CNN
	1    2500 5900
	1    0    0    -1  
$EndComp
Text GLabel 2600 6400 0    60   Input ~ 0
ID_SDA
Text GLabel 4650 6400 2    60   Input ~ 0
ID_SCL
Text GLabel 4950 6900 2    60   Input ~ 0
Warn
Text GLabel 4600 7000 2    60   Input ~ 0
Crit
Text GLabel 1900 6700 0    60   Input ~ 0
OVL
Text GLabel 2300 6800 0    60   Input ~ 0
CVT
Text GLabel 9350 5450 2    60   Input ~ 0
ID_SDA
Text GLabel 8950 5350 2    60   Input ~ 0
ID_SCL
$Comp
L GND #PWR033
U 1 1 57B0EAE8
P 8050 5450
F 0 "#PWR033" H 8050 5200 50  0001 C CNN
F 1 "GND" H 8050 5300 50  0000 C CNN
F 2 "" H 8050 5450 50  0000 C CNN
F 3 "" H 8050 5450 50  0000 C CNN
	1    8050 5450
	1    0    0    -1  
$EndComp
$Comp
L +3.3V #PWR034
U 1 1 57B0EB17
P 8850 4800
F 0 "#PWR034" H 8850 4650 50  0001 C CNN
F 1 "+3.3V" H 8850 4940 50  0000 C CNN
F 2 "" H 8850 4800 50  0000 C CNN
F 3 "" H 8850 4800 50  0000 C CNN
	1    8850 4800
	1    0    0    -1  
$EndComp
Text Notes 8200 5650 0    60   ~ 0
ADX=1010000\n
$Comp
L CONN_01X02 P1
U 1 1 57B0F7D8
P 10100 5300
F 0 "P1" H 10100 5450 50  0000 C CNN
F 1 "CONN_01X02" V 10200 5300 50  0000 C CNN
F 2 "Socket_Strips:Socket_Strip_Straight_1x02" H 10100 5300 50  0001 C CNN
F 3 "" H 10100 5300 50  0000 C CNN
	1    10100 5300
	1    0    0    -1  
$EndComp
$Comp
L GND #PWR035
U 1 1 57B0F8B3
P 9900 5350
F 0 "#PWR035" H 9900 5100 50  0001 C CNN
F 1 "GND" H 9900 5200 50  0000 C CNN
F 2 "" H 9900 5350 50  0000 C CNN
F 3 "" H 9900 5350 50  0000 C CNN
	1    9900 5350
	1    0    0    -1  
$EndComp
$Comp
L GND #PWR036
U 1 1 57B10AD7
P 8000 6300
F 0 "#PWR036" H 8000 6050 50  0001 C CNN
F 1 "GND" H 8000 6150 50  0000 C CNN
F 2 "" H 8000 6300 50  0000 C CNN
F 3 "" H 8000 6300 50  0000 C CNN
	1    8000 6300
	1    0    0    -1  
$EndComp
$Comp
L GND #PWR037
U 1 1 57B10C15
P 8350 6300
F 0 "#PWR037" H 8350 6050 50  0001 C CNN
F 1 "GND" H 8350 6150 50  0000 C CNN
F 2 "" H 8350 6300 50  0000 C CNN
F 3 "" H 8350 6300 50  0000 C CNN
	1    8350 6300
	1    0    0    -1  
$EndComp
$Comp
L GND #PWR038
U 1 1 57B10D83
P 8700 6300
F 0 "#PWR038" H 8700 6050 50  0001 C CNN
F 1 "GND" H 8700 6150 50  0000 C CNN
F 2 "" H 8700 6300 50  0000 C CNN
F 3 "" H 8700 6300 50  0000 C CNN
	1    8700 6300
	1    0    0    -1  
$EndComp
$Comp
L GND #PWR039
U 1 1 57B10D8F
P 9050 6300
F 0 "#PWR039" H 9050 6050 50  0001 C CNN
F 1 "GND" H 9050 6150 50  0000 C CNN
F 2 "" H 9050 6300 50  0000 C CNN
F 3 "" H 9050 6300 50  0000 C CNN
	1    9050 6300
	1    0    0    -1  
$EndComp
$Comp
L GND #PWR040
U 1 1 57B10E7B
P 9350 6300
F 0 "#PWR040" H 9350 6050 50  0001 C CNN
F 1 "GND" H 9350 6150 50  0000 C CNN
F 2 "" H 9350 6300 50  0000 C CNN
F 3 "" H 9350 6300 50  0000 C CNN
	1    9350 6300
	1    0    0    -1  
$EndComp
$Comp
L GND #PWR041
U 1 1 57B10E87
P 9700 6300
F 0 "#PWR041" H 9700 6050 50  0001 C CNN
F 1 "GND" H 9700 6150 50  0000 C CNN
F 2 "" H 9700 6300 50  0000 C CNN
F 3 "" H 9700 6300 50  0000 C CNN
	1    9700 6300
	1    0    0    -1  
$EndComp
$Comp
L +3.3V #PWR042
U 1 1 57B112C1
P 8000 6100
F 0 "#PWR042" H 8000 5950 50  0001 C CNN
F 1 "+3.3V" H 8000 6240 50  0000 C CNN
F 2 "" H 8000 6100 50  0000 C CNN
F 3 "" H 8000 6100 50  0000 C CNN
	1    8000 6100
	1    0    0    -1  
$EndComp
$Comp
L TERM_01X08 J2
U 1 1 57B156D5
P 5400 2200
F 0 "J2" H 5400 2650 50  0000 C CNN
F 1 "TERM_01X08" V 5500 2200 50  0000 C CNN
F 2 "skyhigh:Screw_terminal_strip_1x08" H 5400 2200 50  0001 C CNN
F 3 "" H 5400 2200 50  0000 C CNN
	1    5400 2200
	0    -1   -1   0   
$EndComp
Text GLabel 8000 3100 0    60   Input ~ 0
CVT
Text GLabel 1150 4250 3    60   Input ~ 0
OVL
$Comp
L DS2482-800 U3
U 1 1 5804167D
P 4550 900
F 0 "U3" H 4950 1150 60  0000 C CNN
F 1 "DS2482-800" H 4950 1050 60  0000 C CNN
F 2 "skyhigh:Maxim_S16_DWG#90-0097" H 4550 900 60  0001 C CNN
F 3 "" H 4550 900 60  0001 C CNN
	1    4550 900 
	1    0    0    -1  
$EndComp
$Comp
L TERM_01X08 J3
U 1 1 58041930
P 3300 1250
F 0 "J3" H 3300 1700 50  0000 C CNN
F 1 "TERM_01X08" V 3400 1250 50  0000 C CNN
F 2 "skyhigh:Screw_terminal_strip_1x08" H 3300 1250 50  0001 C CNN
F 3 "" H 3300 1250 50  0000 C CNN
	1    3300 1250
	-1   0    0    -1  
$EndComp
Wire Wire Line
	2350 3750 2750 3750
Wire Wire Line
	9750 3300 10250 3300
Wire Wire Line
	5300 3850 4850 3850
Wire Wire Line
	8000 3950 7550 3950
Wire Wire Line
	10100 3400 9750 3400
Wire Wire Line
	2350 3950 2800 3950
Wire Wire Line
	9750 3500 9950 3500
Wire Wire Line
	8450 3200 8550 3200
Wire Wire Line
	8300 3300 8550 3300
Wire Wire Line
	7550 4050 7800 4050
Wire Wire Line
	6350 3750 6250 3750
Wire Wire Line
	6050 3850 6350 3850
Wire Wire Line
	3400 3750 3650 3750
Wire Wire Line
	3550 3650 3650 3650
Wire Wire Line
	2350 4050 2600 4050
Wire Wire Line
	1100 3750 1150 3750
Wire Wire Line
	950  3850 1150 3850
Wire Wire Line
	4850 3950 5100 3950
Wire Wire Line
	8450 3500 8550 3500
Wire Wire Line
	3650 3950 3500 3950
Wire Wire Line
	6350 4050 6200 4050
Wire Wire Line
	3650 3750 3650 3850
Wire Wire Line
	6350 3850 6350 3950
Wire Wire Line
	8550 3300 8550 3400
Wire Wire Line
	2350 3650 2350 3550
Wire Wire Line
	2350 3550 2500 3550
Wire Wire Line
	4850 3550 4900 3550
Wire Wire Line
	5200 3450 4850 3450
Wire Wire Line
	7650 3550 7550 3550
Wire Wire Line
	7550 3650 7550 3750
Wire Wire Line
	9750 3100 9800 3100
Wire Wire Line
	9800 3100 9800 3300
Connection ~ 9800 3300
Wire Wire Line
	9850 3000 9750 3000
Wire Wire Line
	7550 3750 7850 3750
Wire Wire Line
	9750 3200 9950 3200
Wire Wire Line
	1150 3650 800  3650
Wire Wire Line
	800  3650 800  3950
Wire Wire Line
	800  3950 1150 3950
Wire Wire Line
	1050 4050 1150 4050
Wire Wire Line
	1150 4150 1150 4250
Wire Wire Line
	2350 4150 2350 4250
Wire Wire Line
	3650 4150 3650 4050
Wire Wire Line
	4850 4150 4850 4050
Wire Wire Line
	6350 4250 6350 4150
Wire Wire Line
	7550 4250 7550 4150
Wire Wire Line
	8550 3700 8550 3600
Wire Wire Line
	9750 3700 9750 3600
Wire Wire Line
	2400 3850 2350 3850
Wire Wire Line
	4950 3750 4850 3750
Wire Wire Line
	3650 3550 3250 3550
Wire Wire Line
	5900 3650 6350 3650
Wire Wire Line
	7600 3850 7550 3850
Connection ~ 7400 5200
Wire Wire Line
	2700 5300 2450 5300
Wire Wire Line
	4800 6000 4600 6000
Wire Wire Line
	4600 5300 4800 5300
Wire Wire Line
	2700 5050 2700 5100
Wire Wire Line
	2500 5500 2700 5500
Wire Wire Line
	2500 5900 2700 5900
Wire Wire Line
	2700 6400 2600 6400
Wire Wire Line
	2050 6300 2700 6300
Wire Wire Line
	1900 6700 2700 6700
Wire Wire Line
	2300 6800 2700 6800
Wire Wire Line
	2450 7000 2700 7000
Wire Wire Line
	4800 5700 4600 5700
Wire Wire Line
	4650 6400 4600 6400
Wire Wire Line
	4800 6500 4600 6500
Wire Wire Line
	4800 6700 4600 6700
Wire Wire Line
	8850 4800 8850 5150
Wire Wire Line
	8850 5250 9900 5250
Wire Wire Line
	8850 5350 8950 5350
Wire Wire Line
	8850 5450 9350 5450
Wire Wire Line
	8050 5150 8050 5450
Connection ~ 8050 5250
Connection ~ 8050 5350
Connection ~ 9100 5250
Connection ~ 8350 6100
Connection ~ 9050 6100
Connection ~ 8700 6100
Connection ~ 9350 6100
Connection ~ 9700 6100
Wire Wire Line
	7400 5150 7400 5200
Wire Wire Line
	7400 5200 7150 5200
Wire Wire Line
	3350 3450 3650 3450
Wire Wire Line
	800  3550 1150 3550
Wire Wire Line
	8000 3100 8550 3100
Wire Wire Line
	1100 2400 5050 2400
Wire Wire Line
	800  2500 5150 2500
Wire Wire Line
	5150 2500 5150 2400
Wire Wire Line
	5250 2400 5250 2600
Wire Wire Line
	5250 2600 3650 2600
Wire Wire Line
	3350 2700 5350 2700
Wire Wire Line
	5350 2700 5350 2400
Wire Wire Line
	5200 3650 4850 3650
Wire Wire Line
	1100 3000 1100 3450
Wire Wire Line
	1100 3450 1150 3450
Wire Wire Line
	800  3000 800  3550
Wire Wire Line
	3650 3150 3650 3350
Wire Wire Line
	3350 3150 3350 3450
Wire Wire Line
	5450 2400 5450 2850
Wire Wire Line
	5450 2850 6350 2850
Wire Wire Line
	6350 3300 6350 3450
Wire Wire Line
	6050 3550 6350 3550
Wire Wire Line
	6050 3300 6050 3550
Wire Wire Line
	5750 2400 8250 2400
Wire Wire Line
	5650 2400 5650 2500
Wire Wire Line
	5650 2500 7650 2500
Wire Wire Line
	7650 2500 7650 2300
Wire Wire Line
	7650 2300 8550 2300
Wire Wire Line
	8550 2750 8550 2900
Wire Wire Line
	8550 3000 8250 3000
Wire Wire Line
	8250 3000 8250 2750
Wire Wire Line
	5400 900  6000 900 
Wire Wire Line
	5400 1000 6000 1000
Wire Wire Line
	5400 1100 6000 1100
Wire Wire Line
	5800 1300 6000 1300
Wire Wire Line
	6000 1300 6000 1200
Wire Wire Line
	6000 1400 6000 1500
$Comp
L GND #PWR043
U 1 1 58042AED
P 5800 1300
F 0 "#PWR043" H 5800 1050 50  0001 C CNN
F 1 "GND" H 5800 1150 50  0000 C CNN
F 2 "" H 5800 1300 50  0000 C CNN
F 3 "" H 5800 1300 50  0000 C CNN
	1    5800 1300
	1    0    0    -1  
$EndComp
$Comp
L +3.3V #PWR044
U 1 1 580431AC
P 6000 1500
F 0 "#PWR044" H 6000 1350 50  0001 C CNN
F 1 "+3.3V" H 6000 1640 50  0000 C CNN
F 2 "" H 6000 1500 50  0000 C CNN
F 3 "" H 6000 1500 50  0000 C CNN
	1    6000 1500
	-1   0    0    1   
$EndComp
$Comp
L GND #PWR045
U 1 1 5804321A
P 5400 1200
F 0 "#PWR045" H 5400 950 50  0001 C CNN
F 1 "GND" H 5400 1050 50  0000 C CNN
F 2 "" H 5400 1200 50  0000 C CNN
F 3 "" H 5400 1200 50  0000 C CNN
	1    5400 1200
	0    -1   -1   0   
$EndComp
Wire Wire Line
	5400 1600 5400 1750
Wire Wire Line
	5400 1750 3500 1750
Wire Wire Line
	3500 1750 3500 1600
Wire Wire Line
	5400 1500 5450 1500
Wire Wire Line
	5450 1500 5450 1800
Wire Wire Line
	5450 1800 3550 1800
Wire Wire Line
	3550 1800 3550 1500
Wire Wire Line
	3550 1500 3500 1500
Wire Wire Line
	5400 1400 5500 1400
Wire Wire Line
	5500 1400 5500 1850
Wire Wire Line
	5500 1850 3600 1850
Wire Wire Line
	3600 1850 3600 1400
Wire Wire Line
	3600 1400 3500 1400
Wire Wire Line
	3500 1200 3500 1100
Wire Wire Line
	3500 1100 3600 1100
$Comp
L GND #PWR046
U 1 1 580439E4
P 3600 1100
F 0 "#PWR046" H 3600 850 50  0001 C CNN
F 1 "GND" H 3600 950 50  0000 C CNN
F 2 "" H 3600 1100 50  0000 C CNN
F 3 "" H 3600 1100 50  0000 C CNN
	1    3600 1100
	1    0    0    -1  
$EndComp
$Comp
L +3.3V #PWR047
U 1 1 58043A95
P 3500 900
F 0 "#PWR047" H 3500 750 50  0001 C CNN
F 1 "+3.3V" H 3500 1040 50  0000 C CNN
F 2 "" H 3500 900 50  0000 C CNN
F 3 "" H 3500 900 50  0000 C CNN
	1    3500 900 
	1    0    0    -1  
$EndComp
Wire Wire Line
	3500 1000 3500 900 
Text GLabel 4250 1100 0    60   Input ~ 0
SDA
Text GLabel 4550 1000 0    60   Input ~ 0
SCL
Wire Wire Line
	4550 1100 4250 1100
$Comp
L +3.3V #PWR048
U 1 1 58043F2C
P 4550 1200
F 0 "#PWR048" H 4550 1050 50  0001 C CNN
F 1 "+3.3V" H 4550 1340 50  0000 C CNN
F 2 "" H 4550 1200 50  0000 C CNN
F 3 "" H 4550 1200 50  0000 C CNN
	1    4550 1200
	0    -1   -1   0   
$EndComp
Wire Wire Line
	5400 1300 5550 1300
Wire Wire Line
	5550 1300 5550 1900
Wire Wire Line
	5550 1900 3650 1900
Wire Wire Line
	3650 1900 3650 1300
Wire Wire Line
	3650 1300 3500 1300
Wire Wire Line
	4550 900  4550 550 
Wire Wire Line
	4550 550  5900 550 
$Comp
L TERM_01X08 J4
U 1 1 58041786
P 6200 1150
F 0 "J4" H 6200 1600 50  0000 C CNN
F 1 "TERM_01X08" V 6300 1150 50  0000 C CNN
F 2 "skyhigh:Screw_terminal_strip_1x08" H 6200 1150 50  0001 C CNN
F 3 "" H 6200 1150 50  0000 C CNN
	1    6200 1150
	1    0    0    1   
$EndComp
Wire Wire Line
	5900 550  5900 800 
Wire Wire Line
	5900 800  6000 800 
Text Notes 4650 1750 0    60   ~ 0
ADX=0011000
$Comp
L GND #PWR049
U 1 1 58044B1C
P 4550 1600
F 0 "#PWR049" H 4550 1350 50  0001 C CNN
F 1 "GND" H 4550 1450 50  0000 C CNN
F 2 "" H 4550 1600 50  0000 C CNN
F 3 "" H 4550 1600 50  0000 C CNN
	1    4550 1600
	1    0    0    -1  
$EndComp
Wire Wire Line
	4550 1400 4550 1600
Connection ~ 4550 1500
$Comp
L CON_01X05_PTH_2.54MM J5
U 1 1 5802BC2F
P 5900 5100
F 0 "J5" H 5900 5300 45  0000 L BNN
F 1 "CON_01X05_PTH_2.54MM" H 5900 5200 45  0000 L BNN
F 2 "MF_Connectors:MF_Connectors-PTH_2.54MM_01X05" H 5930 5250 20  0001 C CNN
F 3 "" H 5900 5100 60  0000 C CNN
	1    5900 5100
	1    0    0    -1  
$EndComp
Wire Wire Line
	5800 5100 4600 5100
$Comp
L +3.3V #PWR050
U 1 1 5802D9C4
P 5800 5200
F 0 "#PWR050" H 5800 5050 50  0001 C CNN
F 1 "+3.3V" H 5800 5340 50  0000 C CNN
F 2 "" H 5800 5200 50  0000 C CNN
F 3 "" H 5800 5200 50  0000 C CNN
	1    5800 5200
	0    -1   1    0   
$EndComp
$Comp
L GND #PWR051
U 1 1 5802DA5E
P 5800 5500
F 0 "#PWR051" H 5800 5250 50  0001 C CNN
F 1 "GND" H 5800 5350 50  0000 C CNN
F 2 "" H 5800 5500 50  0000 C CNN
F 3 "" H 5800 5500 50  0000 C CNN
	1    5800 5500
	1    0    0    -1  
$EndComp
Wire Wire Line
	4600 5400 5150 5400
Wire Wire Line
	5150 5400 5150 5300
Wire Wire Line
	5150 5300 5800 5300
Wire Wire Line
	4600 5500 5250 5500
Wire Wire Line
	5250 5500 5250 5400
Wire Wire Line
	5250 5400 5800 5400
$Comp
L CAPACITOR_NP_0805 C1
U 1 1 5802DD21
P 900 3050
F 0 "C1" H 1000 3110 45  0000 L BNN
F 1 "1uF" H 1000 2990 45  0000 L BNN
F 2 "MF_Passives:MF_Passives-C0805" H 930 3200 20  0001 C CNN
F 3 "" H 900 3050 60  0001 C CNN
	1    900  3050
	0    1    1    0   
$EndComp
$Comp
L CAPACITOR_NP_0805 C4
U 1 1 5802DF9E
P 8000 6200
F 0 "C4" H 8100 6260 45  0000 L BNN
F 1 ".1uF" H 8100 6140 45  0000 L BNN
F 2 "MF_Passives:MF_Passives-C0805" H 8030 6350 20  0001 C CNN
F 3 "" H 8000 6200 60  0001 C CNN
	1    8000 6200
	1    0    0    -1  
$EndComp
$Comp
L CAPACITOR_NP_0805 C5
U 1 1 5802E045
P 8350 6200
F 0 "C5" H 8450 6260 45  0000 L BNN
F 1 ".1uF" H 8450 6140 45  0000 L BNN
F 2 "MF_Passives:MF_Passives-C0805" H 8380 6350 20  0001 C CNN
F 3 "" H 8350 6200 60  0001 C CNN
	1    8350 6200
	1    0    0    -1  
$EndComp
$Comp
L CAPACITOR_NP_0805 C7
U 1 1 5802E0D3
P 8700 6200
F 0 "C7" H 8800 6260 45  0000 L BNN
F 1 ".1uF" H 8800 6140 45  0000 L BNN
F 2 "MF_Passives:MF_Passives-C0805" H 8730 6350 20  0001 C CNN
F 3 "" H 8700 6200 60  0001 C CNN
	1    8700 6200
	1    0    0    -1  
$EndComp
$Comp
L CAPACITOR_NP_0805 C8
U 1 1 5802E150
P 9050 6200
F 0 "C8" H 9150 6260 45  0000 L BNN
F 1 ".1uF" H 9150 6140 45  0000 L BNN
F 2 "MF_Passives:MF_Passives-C0805" H 9080 6350 20  0001 C CNN
F 3 "" H 9050 6200 60  0001 C CNN
	1    9050 6200
	1    0    0    -1  
$EndComp
$Comp
L CAPACITOR_NP_0805 C9
U 1 1 5802E1CE
P 9350 6200
F 0 "C9" H 9450 6260 45  0000 L BNN
F 1 ".1uF" H 9450 6140 45  0000 L BNN
F 2 "MF_Passives:MF_Passives-C0805" H 9380 6350 20  0001 C CNN
F 3 "" H 9350 6200 60  0001 C CNN
	1    9350 6200
	1    0    0    -1  
$EndComp
$Comp
L CAPACITOR_NP_0805 C10
U 1 1 5802E249
P 9700 6200
F 0 "C10" H 9800 6260 45  0000 L BNN
F 1 ".1uF" H 9800 6140 45  0000 L BNN
F 2 "MF_Passives:MF_Passives-C0805" H 9730 6350 20  0001 C CNN
F 3 "" H 9700 6200 60  0001 C CNN
	1    9700 6200
	1    0    0    -1  
$EndComp
$Comp
L CAPACITOR_NP_0805 C2
U 1 1 5802F490
P 3450 3200
F 0 "C2" H 3550 3260 45  0000 L BNN
F 1 "1uF" H 3550 3140 45  0000 L BNN
F 2 "MF_Passives:MF_Passives-C0805" H 3480 3350 20  0001 C CNN
F 3 "" H 3450 3200 60  0001 C CNN
	1    3450 3200
	0    1    1    0   
$EndComp
Wire Wire Line
	3550 3200 3650 3200
Connection ~ 3650 3200
Wire Wire Line
	1000 3050 1100 3050
Connection ~ 1100 3050
$Comp
L CAPACITOR_NP_0805 C3
U 1 1 58030E1F
P 6150 3350
F 0 "C3" H 6250 3410 45  0000 L BNN
F 1 "1uF" H 6250 3290 45  0000 L BNN
F 2 "MF_Passives:MF_Passives-C0805" H 6180 3500 20  0001 C CNN
F 3 "" H 6150 3350 60  0001 C CNN
	1    6150 3350
	0    1    1    0   
$EndComp
$Comp
L CAPACITOR_NP_0805 C6
U 1 1 58030ECA
P 8350 2850
F 0 "C6" H 8450 2910 45  0000 L BNN
F 1 "1uF" H 8450 2790 45  0000 L BNN
F 2 "MF_Passives:MF_Passives-C0805" H 8380 3000 20  0001 C CNN
F 3 "" H 8350 2850 60  0001 C CNN
	1    8350 2850
	0    1    1    0   
$EndComp
Wire Wire Line
	6250 3350 6350 3350
Connection ~ 6350 3350
Wire Wire Line
	8450 2850 8550 2850
Connection ~ 8550 2850
$Comp
L RESISTOR_0805 R1
U 1 1 58032035
P 800 2800
F 0 "R1" H 900 2860 45  0000 L BNN
F 1 "10" H 900 2740 45  0000 L BNN
F 2 "MF_Passives:MF_Passives-R0805" H 830 2950 20  0001 C CNN
F 3 "" H 800 2800 60  0001 C CNN
	1    800  2800
	1    0    0    -1  
$EndComp
$Comp
L RESISTOR_0805 R2
U 1 1 5803221C
P 1100 2800
F 0 "R2" H 1200 2860 45  0000 L BNN
F 1 "10" H 1200 2740 45  0000 L BNN
F 2 "MF_Passives:MF_Passives-R0805" H 1130 2950 20  0001 C CNN
F 3 "" H 1100 2800 60  0001 C CNN
	1    1100 2800
	1    0    0    -1  
$EndComp
Wire Wire Line
	800  2600 800  2500
Wire Wire Line
	1100 2600 1100 2400
$Comp
L RESISTOR_0805 R3
U 1 1 58033035
P 3350 2950
F 0 "R3" H 3450 3010 45  0000 L BNN
F 1 "10" H 3450 2890 45  0000 L BNN
F 2 "MF_Passives:MF_Passives-R0805" H 3380 3100 20  0001 C CNN
F 3 "" H 3350 2950 60  0001 C CNN
	1    3350 2950
	1    0    0    -1  
$EndComp
$Comp
L RESISTOR_0805 R4
U 1 1 5803303B
P 3650 2950
F 0 "R4" H 3750 3010 45  0000 L BNN
F 1 "10" H 3750 2890 45  0000 L BNN
F 2 "MF_Passives:MF_Passives-R0805" H 3680 3100 20  0001 C CNN
F 3 "" H 3650 2950 60  0001 C CNN
	1    3650 2950
	1    0    0    -1  
$EndComp
$Comp
L RESISTOR_0805 R5
U 1 1 58033E81
P 6050 3100
F 0 "R5" H 6150 3160 45  0000 L BNN
F 1 "10" H 6150 3040 45  0000 L BNN
F 2 "MF_Passives:MF_Passives-R0805" H 6080 3250 20  0001 C CNN
F 3 "" H 6050 3100 60  0001 C CNN
	1    6050 3100
	1    0    0    -1  
$EndComp
$Comp
L RESISTOR_0805 R6
U 1 1 58033E87
P 6350 3100
F 0 "R6" H 6450 3160 45  0000 L BNN
F 1 "10" H 6450 3040 45  0000 L BNN
F 2 "MF_Passives:MF_Passives-R0805" H 6380 3250 20  0001 C CNN
F 3 "" H 6350 3100 60  0001 C CNN
	1    6350 3100
	1    0    0    -1  
$EndComp
$Comp
L RESISTOR_0805 R9
U 1 1 58033F2B
P 8250 2600
F 0 "R9" H 8350 2660 45  0000 L BNN
F 1 "10" H 8350 2540 45  0000 L BNN
F 2 "MF_Passives:MF_Passives-R0805" H 8280 2750 20  0001 C CNN
F 3 "" H 8250 2600 60  0001 C CNN
	1    8250 2600
	1    0    0    -1  
$EndComp
$Comp
L RESISTOR_0805 R10
U 1 1 58033F31
P 8550 2600
F 0 "R10" H 8650 2660 45  0000 L BNN
F 1 "10" H 8650 2540 45  0000 L BNN
F 2 "MF_Passives:MF_Passives-R0805" H 8580 2750 20  0001 C CNN
F 3 "" H 8550 2600 60  0001 C CNN
	1    8550 2600
	1    0    0    -1  
$EndComp
Wire Wire Line
	8550 2300 8550 2400
Wire Wire Line
	5550 2400 5550 2750
Wire Wire Line
	5550 2750 6050 2750
Wire Wire Line
	6050 2750 6050 2900
Wire Wire Line
	6350 2850 6350 2900
Wire Wire Line
	3650 2600 3650 2750
Wire Wire Line
	3350 2700 3350 2750
$Comp
L RESISTOR_0805 R7
U 1 1 58035497
P 7150 5400
F 0 "R7" H 7250 5460 45  0000 L BNN
F 1 "3.9k" H 7250 5340 45  0000 L BNN
F 2 "MF_Passives:MF_Passives-R0805" H 7180 5550 20  0001 C CNN
F 3 "" H 7150 5400 60  0001 C CNN
	1    7150 5400
	1    0    0    -1  
$EndComp
$Comp
L RESISTOR_0805 R8
U 1 1 580355F1
P 7400 5400
F 0 "R8" H 7500 5460 45  0000 L BNN
F 1 "3.9k" H 7500 5340 45  0000 L BNN
F 2 "MF_Passives:MF_Passives-R0805" H 7430 5550 20  0001 C CNN
F 3 "" H 7400 5400 60  0001 C CNN
	1    7400 5400
	1    0    0    -1  
$EndComp
$Comp
L RESISTOR_0805 R11
U 1 1 58035749
P 9100 5050
F 0 "R11" H 9200 5110 45  0000 L BNN
F 1 "1k" H 9200 4990 45  0000 L BNN
F 2 "MF_Passives:MF_Passives-R0805" H 9130 5200 20  0001 C CNN
F 3 "" H 9100 5050 60  0001 C CNN
	1    9100 5050
	1    0    0    -1  
$EndComp
Wire Wire Line
	9100 4850 8850 4850
Connection ~ 8850 4850
Wire Wire Line
	8000 6100 9700 6100
Connection ~ 800  3050
Connection ~ 3350 3200
Connection ~ 6050 3350
Wire Wire Line
	8250 2800 8250 2850
Connection ~ 8250 2850
Connection ~ 8250 2800
Connection ~ 8550 2800
Wire Wire Line
	4950 6900 4600 6900
$EndSCHEMATC
