G04 #@! TF.FileFunction,Copper,L1,Top,Signal*
%FSLAX46Y46*%
G04 Gerber Fmt 4.6, Leading zero omitted, Abs format (unit mm)*
G04 Created by KiCad (PCBNEW 4.0.3-stable) date 10/22/16 11:35:08*
%MOMM*%
%LPD*%
G01*
G04 APERTURE LIST*
%ADD10C,0.100000*%
%ADD11R,1.727200X1.727200*%
%ADD12O,1.727200X1.727200*%
%ADD13R,1.500000X0.450000*%
%ADD14O,2.200000X2.200000*%
%ADD15R,2.000000X2.000000*%
%ADD16R,2.032000X2.032000*%
%ADD17O,2.032000X2.032000*%
%ADD18R,1.550000X0.600000*%
%ADD19R,1.297940X0.698500*%
%ADD20R,0.698500X1.297940*%
%ADD21C,1.506220*%
%ADD22R,0.533400X1.981200*%
%ADD23C,0.635000*%
%ADD24C,0.254000*%
%ADD25C,0.250000*%
G04 APERTURE END LIST*
D10*
D11*
X113526000Y-75374000D03*
D12*
X113526000Y-72834000D03*
X116066000Y-75374000D03*
X116066000Y-72834000D03*
X118606000Y-75374000D03*
X118606000Y-72834000D03*
X121146000Y-75374000D03*
X121146000Y-72834000D03*
X123686000Y-75374000D03*
X123686000Y-72834000D03*
X126226000Y-75374000D03*
X126226000Y-72834000D03*
X128766000Y-75374000D03*
X128766000Y-72834000D03*
X131306000Y-75374000D03*
X131306000Y-72834000D03*
X133846000Y-75374000D03*
X133846000Y-72834000D03*
X136386000Y-75374000D03*
X136386000Y-72834000D03*
X138926000Y-75374000D03*
X138926000Y-72834000D03*
X141466000Y-75374000D03*
X141466000Y-72834000D03*
X144006000Y-75374000D03*
X144006000Y-72834000D03*
X146546000Y-75374000D03*
X146546000Y-72834000D03*
X149086000Y-75374000D03*
X149086000Y-72834000D03*
X151626000Y-75374000D03*
X151626000Y-72834000D03*
X154166000Y-75374000D03*
X154166000Y-72834000D03*
X156706000Y-75374000D03*
X156706000Y-72834000D03*
X159246000Y-75374000D03*
X159246000Y-72834000D03*
X161786000Y-75374000D03*
X161786000Y-72834000D03*
D13*
X139094000Y-99303000D03*
X139094000Y-98653000D03*
X139094000Y-98003000D03*
X139094000Y-97353000D03*
X139094000Y-96703000D03*
X139094000Y-96053000D03*
X139094000Y-95403000D03*
X139094000Y-94753000D03*
X133194000Y-94753000D03*
X133194000Y-95403000D03*
X133194000Y-96053000D03*
X133194000Y-96703000D03*
X133194000Y-97353000D03*
X133194000Y-98003000D03*
X133194000Y-98653000D03*
X133194000Y-99303000D03*
X123854000Y-99303000D03*
X123854000Y-98653000D03*
X123854000Y-98003000D03*
X123854000Y-97353000D03*
X123854000Y-96703000D03*
X123854000Y-96053000D03*
X123854000Y-95403000D03*
X123854000Y-94753000D03*
X117954000Y-94753000D03*
X117954000Y-95403000D03*
X117954000Y-96053000D03*
X117954000Y-96703000D03*
X117954000Y-97353000D03*
X117954000Y-98003000D03*
X117954000Y-98653000D03*
X117954000Y-99303000D03*
D14*
X134366000Y-122936000D03*
X131826000Y-122936000D03*
D15*
X116586000Y-122936000D03*
D14*
X119126000Y-122936000D03*
X121666000Y-122936000D03*
X124206000Y-122936000D03*
X126746000Y-122936000D03*
X129286000Y-122936000D03*
D16*
X155956000Y-91948000D03*
D17*
X158496000Y-91948000D03*
D14*
X166116000Y-97790000D03*
X166116000Y-100330000D03*
D15*
X166116000Y-115570000D03*
D14*
X166116000Y-113030000D03*
X166116000Y-110490000D03*
X166116000Y-107950000D03*
X166116000Y-105410000D03*
X166116000Y-102870000D03*
X158750000Y-122936000D03*
X156210000Y-122936000D03*
D15*
X140970000Y-122936000D03*
D14*
X143510000Y-122936000D03*
X146050000Y-122936000D03*
X148590000Y-122936000D03*
X151130000Y-122936000D03*
X153670000Y-122936000D03*
D13*
X123854000Y-88635000D03*
X123854000Y-87985000D03*
X123854000Y-87335000D03*
X123854000Y-86685000D03*
X123854000Y-86035000D03*
X123854000Y-85385000D03*
X123854000Y-84735000D03*
X123854000Y-84085000D03*
X117954000Y-84085000D03*
X117954000Y-84735000D03*
X117954000Y-85385000D03*
X117954000Y-86035000D03*
X117954000Y-86685000D03*
X117954000Y-87335000D03*
X117954000Y-87985000D03*
X117954000Y-88635000D03*
D18*
X160180000Y-85725000D03*
X160180000Y-84455000D03*
X160180000Y-83185000D03*
X160180000Y-81915000D03*
X154780000Y-81915000D03*
X154780000Y-83185000D03*
X154780000Y-84455000D03*
X154780000Y-85725000D03*
D13*
X139094000Y-88635000D03*
X139094000Y-87985000D03*
X139094000Y-87335000D03*
X139094000Y-86685000D03*
X139094000Y-86035000D03*
X139094000Y-85385000D03*
X139094000Y-84735000D03*
X139094000Y-84085000D03*
X133194000Y-84085000D03*
X133194000Y-84735000D03*
X133194000Y-85385000D03*
X133194000Y-86035000D03*
X133194000Y-86685000D03*
X133194000Y-87335000D03*
X133194000Y-87985000D03*
X133194000Y-88635000D03*
D19*
X153924000Y-114741960D03*
X153924000Y-112842040D03*
X153924000Y-109661960D03*
X153924000Y-107762040D03*
X153924000Y-104581960D03*
X153924000Y-102682040D03*
X113538000Y-85156040D03*
X113538000Y-87055960D03*
X129540000Y-84902040D03*
X129540000Y-86801960D03*
X153924000Y-99501960D03*
X153924000Y-97602040D03*
X113284000Y-95382080D03*
X113284000Y-97282000D03*
X129540000Y-95316040D03*
X129540000Y-97215960D03*
D20*
X148910040Y-80772000D03*
X150809960Y-80772000D03*
D19*
X112776000Y-110169960D03*
X112776000Y-108270040D03*
D21*
X166116000Y-92456000D03*
X166116000Y-89916000D03*
X166116000Y-87376000D03*
X166116000Y-84836000D03*
X166116000Y-82296000D03*
D20*
X158429960Y-112776000D03*
X156530040Y-112776000D03*
X158429960Y-115316000D03*
X156530040Y-115316000D03*
X158429960Y-107696000D03*
X156530040Y-107696000D03*
X158429960Y-110236000D03*
X156530040Y-110236000D03*
X158429960Y-102616000D03*
X156530040Y-102616000D03*
X158429960Y-105156000D03*
X156530040Y-105156000D03*
X148910040Y-83312000D03*
X150809960Y-83312000D03*
X148910040Y-85852000D03*
X150809960Y-85852000D03*
X158429960Y-97536000D03*
X156530040Y-97536000D03*
X158429960Y-100076000D03*
X156530040Y-100076000D03*
X153675080Y-88265000D03*
X155575000Y-88265000D03*
D22*
X124841000Y-113715800D03*
X124841000Y-108788200D03*
X123571000Y-113715800D03*
X123571000Y-108788200D03*
X122301000Y-113715800D03*
X122301000Y-108788200D03*
X121031000Y-113715800D03*
X121031000Y-108788200D03*
X119761000Y-113715800D03*
X119761000Y-108788200D03*
X118491000Y-113715800D03*
X118491000Y-108788200D03*
X117221000Y-113715800D03*
X117221000Y-108788200D03*
X115951000Y-113715800D03*
X115951000Y-108788200D03*
D23*
X136398000Y-78622990D03*
X147459155Y-87918909D03*
X138176000Y-77343000D03*
X160528000Y-87884000D03*
X141413081Y-79058919D03*
X142971721Y-86390279D03*
X154432000Y-89662000D03*
X147447000Y-84582000D03*
X163830000Y-89662000D03*
X136206865Y-85998106D03*
X136340135Y-95412796D03*
X135890000Y-98298000D03*
X140462000Y-124714000D03*
X114046000Y-124714000D03*
X123256051Y-78927949D03*
X119707011Y-96011917D03*
X119380000Y-85305987D03*
X121412000Y-85344000D03*
X121158000Y-96012000D03*
X120904000Y-112014000D03*
X118618000Y-110490000D03*
X126296982Y-89857018D03*
X154178000Y-78232000D03*
X126492000Y-84074000D03*
X139192000Y-82804000D03*
X134366000Y-82804000D03*
X156464000Y-78366990D03*
X125476000Y-96012000D03*
X136398000Y-87376000D03*
X135128000Y-87376000D03*
X140716000Y-98044000D03*
X140970000Y-87376000D03*
X125476000Y-87376000D03*
X122428000Y-98044000D03*
X149812389Y-78375466D03*
X151892000Y-78366990D03*
X155129364Y-80707364D03*
X152589364Y-83247364D03*
X139573000Y-81407000D03*
X131572000Y-94742000D03*
X131318000Y-84074000D03*
X131318000Y-81788000D03*
X116078000Y-94488000D03*
X116078000Y-84074000D03*
X140762780Y-84727678D03*
X157226000Y-78994000D03*
X154940000Y-78994000D03*
X127254000Y-94996000D03*
X127254000Y-85344000D03*
X136906000Y-83566000D03*
X135382000Y-83566000D03*
X116840000Y-86662010D03*
X116078000Y-78740000D03*
X135636000Y-91694000D03*
X135636000Y-96520000D03*
X134519743Y-97423492D03*
X119380000Y-93472000D03*
X119381145Y-97611842D03*
X123698000Y-102362000D03*
X124714000Y-101092000D03*
X123444000Y-106172000D03*
X124333000Y-106299000D03*
X134327987Y-87376000D03*
X115570000Y-86106000D03*
X115062000Y-83820000D03*
X134815117Y-96680010D03*
X119707011Y-96811930D03*
X119380000Y-86106000D03*
X119888000Y-119888000D03*
X117564742Y-115789276D03*
X118361602Y-117858398D03*
X125476000Y-118175021D03*
D24*
X138230128Y-79629000D02*
X140081000Y-79629000D01*
X137224118Y-78622990D02*
X138230128Y-79629000D01*
X167315552Y-92784565D02*
X167315552Y-86035552D01*
X140081000Y-79629000D02*
X146683611Y-86231611D01*
X146683611Y-86231611D02*
X146683611Y-88639274D01*
X147261259Y-88949662D02*
X153563221Y-95251624D01*
X153563221Y-95251624D02*
X164848493Y-95251624D01*
X166869109Y-85589109D02*
X166116000Y-84836000D01*
X146993999Y-88949662D02*
X147261259Y-88949662D01*
X167315552Y-86035552D02*
X166869109Y-85589109D01*
X136822264Y-78622990D02*
X137224118Y-78622990D01*
X146683611Y-88639274D02*
X146993999Y-88949662D01*
X164848493Y-95251624D02*
X167315552Y-92784565D01*
D25*
X136822264Y-78622990D02*
X136398000Y-78622990D01*
D24*
X147459155Y-87469897D02*
X147459155Y-87918909D01*
X139967272Y-78940521D02*
X147459155Y-86432404D01*
X138116399Y-78940521D02*
X139967272Y-78940521D01*
X147459155Y-86432404D02*
X147459155Y-87469897D01*
D25*
X138116399Y-78940521D02*
X138116399Y-77402601D01*
X138116399Y-77402601D02*
X138176000Y-77343000D01*
D24*
X166116000Y-87376000D02*
X161036000Y-87376000D01*
X161036000Y-87376000D02*
X160528000Y-87884000D01*
X146481820Y-84127658D02*
X141713080Y-79358918D01*
X146481820Y-84499317D02*
X146481820Y-84127658D01*
X153803500Y-94488000D02*
X148233789Y-88918288D01*
X166116000Y-92456000D02*
X164084000Y-94488000D01*
X141713080Y-79358918D02*
X141413081Y-79058919D01*
X148233789Y-86251287D02*
X146481820Y-84499317D01*
X148233789Y-88918288D02*
X148233789Y-86251287D01*
X164084000Y-94488000D02*
X153803500Y-94488000D01*
X158429960Y-102616000D02*
X165862000Y-102616000D01*
X165862000Y-102616000D02*
X166116000Y-102870000D01*
D25*
X142616442Y-86035000D02*
X142654222Y-86072780D01*
X142654222Y-86072780D02*
X142971721Y-86390279D01*
X139094000Y-86035000D02*
X142616442Y-86035000D01*
X154432000Y-89662000D02*
X154432000Y-89021920D01*
X154432000Y-89021920D02*
X153675080Y-88265000D01*
X148910040Y-86750970D02*
X151821070Y-89662000D01*
X154432000Y-89662000D02*
X151821070Y-89662000D01*
X139094000Y-85385000D02*
X139094000Y-86035000D01*
X148910040Y-85852000D02*
X148910040Y-86750970D01*
X147447000Y-84582000D02*
X147640040Y-84582000D01*
X147640040Y-84582000D02*
X148910040Y-85852000D01*
X133846000Y-76821800D02*
X133846000Y-75374000D01*
X113526000Y-76821800D02*
X113526000Y-75374000D01*
D24*
X148910040Y-83312000D02*
X148910040Y-85852000D01*
X148910040Y-80772000D02*
X148910040Y-83312000D01*
X163830000Y-89662000D02*
X165862000Y-89662000D01*
X165862000Y-89662000D02*
X166116000Y-89916000D01*
X136206865Y-85447865D02*
X136206865Y-85998106D01*
X136144000Y-85385000D02*
X136206865Y-85447865D01*
X113526000Y-76821800D02*
X113526000Y-77914000D01*
X113538000Y-77926000D02*
X113538000Y-85156040D01*
X113526000Y-77914000D02*
X113538000Y-77926000D01*
X123854000Y-85385000D02*
X123854000Y-86035000D01*
X133194000Y-95403000D02*
X136330339Y-95403000D01*
X139094000Y-96053000D02*
X136980339Y-96053000D01*
X136980339Y-96053000D02*
X136340135Y-95412796D01*
X136330339Y-95403000D02*
X136340135Y-95412796D01*
X133846000Y-76821800D02*
X133846000Y-77914000D01*
X133846000Y-77914000D02*
X136144000Y-80212000D01*
X136144000Y-80212000D02*
X136144000Y-85385000D01*
X135890000Y-98298000D02*
X135465736Y-98298000D01*
X135465736Y-98298000D02*
X135268735Y-98100999D01*
X135268735Y-98100999D02*
X134295999Y-98100999D01*
X134295999Y-98100999D02*
X134198000Y-98003000D01*
X134198000Y-98003000D02*
X133194000Y-98003000D01*
X139094000Y-96703000D02*
X139094000Y-96053000D01*
X136144000Y-85385000D02*
X139094000Y-85385000D01*
X134848000Y-85385000D02*
X136144000Y-85385000D01*
X133194000Y-84735000D02*
X134198000Y-84735000D01*
X134198000Y-84735000D02*
X134848000Y-85385000D01*
X129540000Y-84902040D02*
X130442970Y-84902040D01*
X130442970Y-84902040D02*
X130610010Y-84735000D01*
X130610010Y-84735000D02*
X133194000Y-84735000D01*
X140970000Y-122936000D02*
X143510000Y-122936000D01*
X140462000Y-124714000D02*
X140462000Y-123444000D01*
X140462000Y-123444000D02*
X140970000Y-122936000D01*
X114046000Y-121650000D02*
X115332000Y-122936000D01*
X112776000Y-120380000D02*
X114046000Y-121650000D01*
X114046000Y-121650000D02*
X114046000Y-124714000D01*
X133194000Y-95403000D02*
X129626960Y-95403000D01*
X129626960Y-95403000D02*
X129540000Y-95316040D01*
X117954000Y-95403000D02*
X118958000Y-95403000D01*
X118958000Y-95403000D02*
X118976085Y-95384915D01*
X118976085Y-95384915D02*
X120377915Y-95384915D01*
X120377915Y-95384915D02*
X120396000Y-95403000D01*
X120339985Y-84678985D02*
X120396000Y-84735000D01*
X117954000Y-84735000D02*
X118958000Y-84735000D01*
X119014015Y-84678985D02*
X120339985Y-84678985D01*
X118958000Y-84735000D02*
X119014015Y-84678985D01*
X113538000Y-85156040D02*
X114440970Y-85156040D01*
X114440970Y-85156040D02*
X114862010Y-84735000D01*
X114862010Y-84735000D02*
X117954000Y-84735000D01*
X123329000Y-86035000D02*
X123854000Y-86035000D01*
X122010999Y-84716999D02*
X123329000Y-86035000D01*
X120414001Y-84716999D02*
X122010999Y-84716999D01*
X120396000Y-84735000D02*
X120414001Y-84716999D01*
X122850000Y-96703000D02*
X123854000Y-96703000D01*
X121531999Y-95384999D02*
X122850000Y-96703000D01*
X120414001Y-95384999D02*
X121531999Y-95384999D01*
X120396000Y-95403000D02*
X120414001Y-95384999D01*
X123854000Y-96703000D02*
X128153040Y-96703000D01*
X128153040Y-96703000D02*
X129218966Y-95637074D01*
X120396000Y-84735000D02*
X120396000Y-95403000D01*
X120396000Y-95403000D02*
X120396000Y-107429300D01*
X120396000Y-107429300D02*
X121031000Y-108064300D01*
X121031000Y-108064300D02*
X121031000Y-108788200D01*
X117954000Y-95403000D02*
X113304920Y-95403000D01*
X113304920Y-95403000D02*
X113284000Y-95382080D01*
X112776000Y-110169960D02*
X112776000Y-111760000D01*
X112776000Y-111760000D02*
X112776000Y-120380000D01*
X121031000Y-108788200D02*
X121031000Y-110032800D01*
X121031000Y-110032800D02*
X119303800Y-111760000D01*
X119303800Y-111760000D02*
X112776000Y-111760000D01*
X115332000Y-122936000D02*
X116586000Y-122936000D01*
X119126000Y-122936000D02*
X116586000Y-122936000D01*
D25*
X154780000Y-85725000D02*
X154780000Y-87759330D01*
X154780000Y-87759330D02*
X154274330Y-88265000D01*
X154274330Y-88265000D02*
X153675080Y-88265000D01*
X131445000Y-87236000D02*
X131445000Y-86868000D01*
X129540000Y-86801960D02*
X131378960Y-86801960D01*
X131445000Y-86868000D02*
X131445000Y-85799930D01*
X131378960Y-86801960D02*
X131445000Y-86868000D01*
X123854000Y-86685000D02*
X129423040Y-86685000D01*
X129423040Y-86685000D02*
X129540000Y-86801960D01*
X132194000Y-87985000D02*
X131445000Y-87236000D01*
X131445000Y-85799930D02*
X131859930Y-85385000D01*
X118618000Y-110490000D02*
X118618000Y-108915200D01*
X118618000Y-108915200D02*
X118491000Y-108788200D01*
X117221000Y-108788200D02*
X118491000Y-108788200D01*
X115951000Y-108788200D02*
X117221000Y-108788200D01*
X133194000Y-87985000D02*
X132194000Y-87985000D01*
X123686000Y-78498000D02*
X123256051Y-78927949D01*
X123686000Y-75374000D02*
X123686000Y-78498000D01*
X149086000Y-72834000D02*
X150274601Y-71645399D01*
X150274601Y-71645399D02*
X152977399Y-71645399D01*
X152977399Y-71645399D02*
X154166000Y-72834000D01*
X136386000Y-72834000D02*
X137574601Y-71645399D01*
X137574601Y-71645399D02*
X147897399Y-71645399D01*
X147897399Y-71645399D02*
X149086000Y-72834000D01*
X136386000Y-72834000D02*
X137574601Y-74022601D01*
X137574601Y-74022601D02*
X142654601Y-74022601D01*
X142654601Y-74022601D02*
X144006000Y-75374000D01*
X128766000Y-72834000D02*
X129954601Y-74022601D01*
X129954601Y-74022601D02*
X135197399Y-74022601D01*
X135197399Y-74022601D02*
X136386000Y-72834000D01*
X123686000Y-75374000D02*
X124874601Y-74185399D01*
X127414601Y-74185399D02*
X128766000Y-72834000D01*
X124874601Y-74185399D02*
X127414601Y-74185399D01*
X154166000Y-72834000D02*
X155354601Y-74022601D01*
X155354601Y-74022601D02*
X160434601Y-74022601D01*
X160434601Y-74022601D02*
X161786000Y-75374000D01*
X144006000Y-75374000D02*
X144006000Y-76595314D01*
X144006000Y-76595314D02*
X147206715Y-79796029D01*
X147206715Y-79796029D02*
X147678729Y-79796029D01*
X161786000Y-76821800D02*
X161786000Y-75374000D01*
X118606000Y-72834000D02*
X119794601Y-74022601D01*
X119794601Y-74022601D02*
X122334601Y-74022601D01*
X122334601Y-74022601D02*
X123686000Y-75374000D01*
X118919790Y-72520210D02*
X118606000Y-72834000D01*
D24*
X161786000Y-76821800D02*
X161786000Y-80784000D01*
X161786000Y-80784000D02*
X160655000Y-81915000D01*
X160655000Y-81915000D02*
X160180000Y-81915000D01*
X147678729Y-79796029D02*
X150133709Y-79796029D01*
X150133709Y-79796029D02*
X150809960Y-80472280D01*
X150809960Y-80472280D02*
X150809960Y-80772000D01*
X160180000Y-84455000D02*
X160180000Y-83185000D01*
X160180000Y-85725000D02*
X160180000Y-84455000D01*
X160180000Y-83185000D02*
X160180000Y-81915000D01*
X166116000Y-82296000D02*
X160561000Y-82296000D01*
X160561000Y-82296000D02*
X160180000Y-81915000D01*
X158496000Y-91948000D02*
X158496000Y-86934000D01*
X158496000Y-86934000D02*
X159705000Y-85725000D01*
X159705000Y-85725000D02*
X160180000Y-85725000D01*
X113538000Y-87055960D02*
X113238280Y-87055960D01*
X112984280Y-97282000D02*
X113284000Y-97282000D01*
X113238280Y-87055960D02*
X112308029Y-87986211D01*
X112308029Y-87986211D02*
X112308029Y-96605749D01*
X112308029Y-96605749D02*
X112984280Y-97282000D01*
X134198000Y-85385000D02*
X135043989Y-86230989D01*
X135553021Y-86230989D02*
X136007032Y-86685000D01*
X136007032Y-86685000D02*
X139094000Y-86685000D01*
X135043989Y-86230989D02*
X135553021Y-86230989D01*
X133194000Y-85385000D02*
X134198000Y-85385000D01*
X133096001Y-87887001D02*
X133194000Y-87985000D01*
X114440970Y-86307068D02*
X114440970Y-87055960D01*
X115363038Y-85385000D02*
X114440970Y-86307068D01*
X117954000Y-85385000D02*
X115363038Y-85385000D01*
X135936962Y-95892998D02*
X137396964Y-97353000D01*
X133194000Y-96053000D02*
X135175036Y-96053000D01*
X135335038Y-95892998D02*
X135936962Y-95892998D01*
X135175036Y-96053000D02*
X135335038Y-95892998D01*
X137396964Y-97353000D02*
X139094000Y-97353000D01*
X131859930Y-85385000D02*
X133194000Y-85385000D01*
X146050000Y-122936000D02*
X143256000Y-125730000D01*
X143256000Y-125730000D02*
X127000000Y-125730000D01*
X127000000Y-125730000D02*
X124206000Y-122936000D01*
X146050000Y-122936000D02*
X148590000Y-122936000D01*
X117954000Y-96053000D02*
X119665928Y-96053000D01*
X119665928Y-96053000D02*
X119707011Y-96011917D01*
X119300987Y-85385000D02*
X119380000Y-85305987D01*
X117954000Y-85385000D02*
X119300987Y-85385000D01*
X113538000Y-87055960D02*
X114440970Y-87055960D01*
X114440970Y-87055960D02*
X115370010Y-87985000D01*
X115370010Y-87985000D02*
X117954000Y-87985000D01*
X121412000Y-85344000D02*
X122753000Y-86685000D01*
X122753000Y-86685000D02*
X123854000Y-86685000D01*
X121158000Y-96012000D02*
X121158000Y-96436264D01*
X121158000Y-96436264D02*
X122074736Y-97353000D01*
X122074736Y-97353000D02*
X123854000Y-97353000D01*
X123854000Y-97353000D02*
X129402960Y-97353000D01*
X129402960Y-97353000D02*
X129540000Y-97215960D01*
X129540000Y-97215960D02*
X130442970Y-97215960D01*
X130442970Y-97215960D02*
X131605930Y-96053000D01*
X131605930Y-96053000D02*
X133194000Y-96053000D01*
X130442970Y-97215960D02*
X131880010Y-98653000D01*
X131880010Y-98653000D02*
X133194000Y-98653000D01*
X116332000Y-97385000D02*
X116229000Y-97282000D01*
X116229000Y-97282000D02*
X113284000Y-97282000D01*
X116950000Y-96053000D02*
X117954000Y-96053000D01*
X116332000Y-97385000D02*
X116332000Y-96671000D01*
X116332000Y-96671000D02*
X116950000Y-96053000D01*
X117954000Y-98003000D02*
X116950000Y-98003000D01*
X116950000Y-98003000D02*
X116332000Y-97385000D01*
X117954000Y-98653000D02*
X117954000Y-98003000D01*
X117954000Y-98653000D02*
X116950000Y-98653000D01*
X116950000Y-98653000D02*
X112776000Y-102827000D01*
X112776000Y-102827000D02*
X112776000Y-108270040D01*
X121666000Y-122936000D02*
X124206000Y-122936000D01*
X121031000Y-113715800D02*
X121031000Y-122301000D01*
X121031000Y-122301000D02*
X121666000Y-122936000D01*
X120904000Y-112014000D02*
X120904000Y-113588800D01*
X120904000Y-113588800D02*
X121031000Y-113715800D01*
X112776000Y-108270040D02*
X115432840Y-108270040D01*
X115432840Y-108270040D02*
X115951000Y-108788200D01*
D25*
X146546000Y-72834000D02*
X147897399Y-74185399D01*
X150437399Y-78812617D02*
X150999782Y-79375000D01*
D24*
X150999782Y-79375000D02*
X153677999Y-82053217D01*
D25*
X147897399Y-74185399D02*
X149656529Y-74185399D01*
X149656529Y-74185399D02*
X150437399Y-74966269D01*
X150437399Y-74966269D02*
X150437399Y-78812617D01*
D24*
X150809960Y-85852000D02*
X151638000Y-85852000D01*
X151638000Y-85852000D02*
X154305000Y-83185000D01*
X154305000Y-83185000D02*
X154780000Y-83185000D01*
X153677999Y-82053217D02*
X153677999Y-82557999D01*
X153677999Y-82557999D02*
X154305000Y-83185000D01*
X126296982Y-93551971D02*
X126296982Y-89857018D01*
X126492000Y-93746989D02*
X126296982Y-93551971D01*
D25*
X154166000Y-76821800D02*
X154166000Y-75374000D01*
D24*
X154166000Y-76821800D02*
X154166000Y-78220000D01*
X154166000Y-78220000D02*
X154178000Y-78232000D01*
X138569000Y-94753000D02*
X139094000Y-94753000D01*
X137562989Y-93746989D02*
X138569000Y-94753000D01*
X132147018Y-93746988D02*
X137562989Y-93746989D01*
X131082982Y-93660988D02*
X132061019Y-93660989D01*
X130996981Y-93746989D02*
X131082982Y-93660988D01*
X132061019Y-93660989D02*
X132147018Y-93746988D01*
X126492000Y-93746989D02*
X130996981Y-93746989D01*
X126139000Y-82804000D02*
X126492000Y-82804000D01*
X126492000Y-82804000D02*
X134366000Y-82804000D01*
X126492000Y-84074000D02*
X126492000Y-82804000D01*
X125864011Y-93746989D02*
X126492000Y-93746989D01*
X123854000Y-94753000D02*
X124858000Y-94753000D01*
X124858000Y-94753000D02*
X125864011Y-93746989D01*
X139192000Y-82804000D02*
X139192000Y-83987000D01*
X139192000Y-83987000D02*
X139094000Y-84085000D01*
X123854000Y-84085000D02*
X124858000Y-84085000D01*
X124858000Y-84085000D02*
X126139000Y-82804000D01*
D25*
X132406998Y-89408000D02*
X133981002Y-89408000D01*
X133981002Y-89408000D02*
X135128000Y-88261002D01*
X135128000Y-88261002D02*
X135128000Y-87376000D01*
X126662264Y-88138000D02*
X131136998Y-88138000D01*
X131136998Y-88138000D02*
X132406998Y-89408000D01*
X125476000Y-87376000D02*
X125900264Y-87376000D01*
X125900264Y-87376000D02*
X126662264Y-88138000D01*
X156706000Y-76821800D02*
X156706000Y-75374000D01*
D24*
X156706000Y-78124990D02*
X156464000Y-78366990D01*
X156706000Y-76821800D02*
X156706000Y-78124990D01*
X123854000Y-96053000D02*
X125435000Y-96053000D01*
X125435000Y-96053000D02*
X125476000Y-96012000D01*
X136398000Y-87376000D02*
X139053000Y-87376000D01*
X139053000Y-87376000D02*
X139094000Y-87335000D01*
X140716000Y-98044000D02*
X139135000Y-98044000D01*
X139135000Y-98044000D02*
X139094000Y-98003000D01*
X139094000Y-87335000D02*
X140929000Y-87335000D01*
X140929000Y-87335000D02*
X140970000Y-87376000D01*
X125476000Y-87376000D02*
X123895000Y-87376000D01*
X123895000Y-87376000D02*
X123854000Y-87335000D01*
X123854000Y-98003000D02*
X122469000Y-98003000D01*
X122469000Y-98003000D02*
X122428000Y-98044000D01*
D25*
X146546000Y-75374000D02*
X146546000Y-76821800D01*
D24*
X148258723Y-76821800D02*
X149812389Y-78375466D01*
X146546000Y-76821800D02*
X148258723Y-76821800D01*
X154780000Y-81254990D02*
X151892000Y-78366990D01*
X154780000Y-81915000D02*
X154780000Y-81254990D01*
X154780000Y-81056728D02*
X155129364Y-80707364D01*
X154780000Y-81915000D02*
X154780000Y-81056728D01*
X152524728Y-83312000D02*
X152589364Y-83247364D01*
X150809960Y-83312000D02*
X152524728Y-83312000D01*
X153282558Y-95658034D02*
X153083635Y-95658034D01*
X153083635Y-95658034D02*
X139573000Y-82147399D01*
X139573000Y-82147399D02*
X139573000Y-81407000D01*
X159246000Y-72834000D02*
X160389001Y-71690999D01*
X165043867Y-95631000D02*
X165016833Y-95658034D01*
X160389001Y-71690999D02*
X162334641Y-71690999D01*
X162334641Y-71690999D02*
X163000545Y-72356903D01*
X163000545Y-72356903D02*
X163000545Y-77652428D01*
X167630486Y-94234000D02*
X166233486Y-95631000D01*
X163000545Y-77652428D02*
X168529000Y-83180883D01*
X168529000Y-83180883D02*
X168529000Y-94234000D01*
X168529000Y-94234000D02*
X167630486Y-94234000D01*
X166233486Y-95631000D02*
X165043867Y-95631000D01*
X165016833Y-95658034D02*
X153282558Y-95658034D01*
X153282558Y-95658034D02*
X153255524Y-95631000D01*
X131572000Y-94742000D02*
X133183000Y-94742000D01*
X133183000Y-94742000D02*
X133194000Y-94753000D01*
X131318000Y-84074000D02*
X133183000Y-84074000D01*
X133183000Y-84074000D02*
X133194000Y-84085000D01*
X117954000Y-84085000D02*
X118958000Y-84085000D01*
X118958000Y-84085000D02*
X121255000Y-81788000D01*
X121255000Y-81788000D02*
X131318000Y-81788000D01*
X116078000Y-94488000D02*
X117689000Y-94488000D01*
X117689000Y-94488000D02*
X117954000Y-94753000D01*
X117954000Y-84085000D02*
X116089000Y-84085000D01*
X116089000Y-84085000D02*
X116078000Y-84074000D01*
X139094000Y-84735000D02*
X140755458Y-84735000D01*
X140755458Y-84735000D02*
X140762780Y-84727678D01*
X154940000Y-78994000D02*
X157226000Y-78994000D01*
X131185039Y-94200999D02*
X131271039Y-94114999D01*
X138090000Y-95403000D02*
X139094000Y-95403000D01*
X131271039Y-94114999D02*
X131872961Y-94114999D01*
X131872961Y-94114999D02*
X131958961Y-94200999D01*
X127254000Y-94200999D02*
X131185039Y-94200999D01*
X136887999Y-94200999D02*
X138090000Y-95403000D01*
X131958961Y-94200999D02*
X136887999Y-94200999D01*
X134957736Y-83566000D02*
X135382000Y-83566000D01*
X134838735Y-83446999D02*
X134957736Y-83566000D01*
X128120218Y-84735000D02*
X129408219Y-83446999D01*
X127254000Y-84735000D02*
X128120218Y-84735000D01*
X129408219Y-83446999D02*
X134838735Y-83446999D01*
X126060001Y-94200999D02*
X127254000Y-94200999D01*
X127254000Y-94200999D02*
X127254000Y-94996000D01*
X123854000Y-84735000D02*
X127254000Y-84735000D01*
X127254000Y-84735000D02*
X127254000Y-85344000D01*
X123854000Y-95403000D02*
X124858000Y-95403000D01*
X124858000Y-95403000D02*
X126060001Y-94200999D01*
X136906000Y-83566000D02*
X138075000Y-84735000D01*
X138075000Y-84735000D02*
X139094000Y-84735000D01*
X123144001Y-106471999D02*
X123444000Y-106172000D01*
X122301000Y-107315000D02*
X123144001Y-106471999D01*
X122301000Y-108788200D02*
X122301000Y-107315000D01*
D25*
X116066000Y-76821800D02*
X116066000Y-75374000D01*
D24*
X135636000Y-91694000D02*
X135636000Y-87811960D01*
X135770999Y-87676961D02*
X135770999Y-87098184D01*
X135770999Y-87098184D02*
X135357815Y-86685000D01*
X135636000Y-87811960D02*
X135770999Y-87676961D01*
X135357815Y-86685000D02*
X133194000Y-86685000D01*
X116862990Y-86685000D02*
X116840000Y-86662010D01*
X117954000Y-86685000D02*
X116862990Y-86685000D01*
X116066000Y-76821800D02*
X116066000Y-78728000D01*
X116066000Y-78728000D02*
X116078000Y-78740000D01*
X135636000Y-97282000D02*
X135636000Y-96520000D01*
X135565000Y-97353000D02*
X135636000Y-97282000D01*
X133194000Y-97353000D02*
X135565000Y-97353000D01*
X134449251Y-97353000D02*
X134519743Y-97423492D01*
X133194000Y-97353000D02*
X134449251Y-97353000D01*
X117954000Y-87335000D02*
X118958000Y-87335000D01*
X118958000Y-87335000D02*
X119380000Y-87757000D01*
X119380000Y-87757000D02*
X119380000Y-93472000D01*
X117954000Y-86685000D02*
X117954000Y-87335000D01*
X117954000Y-97353000D02*
X118958000Y-97353000D01*
X118958000Y-97353000D02*
X119216842Y-97611842D01*
X119216842Y-97611842D02*
X119381145Y-97611842D01*
X124714000Y-101092000D02*
X124714000Y-101346000D01*
X124714000Y-101346000D02*
X123698000Y-102362000D01*
X123571000Y-108788200D02*
X123571000Y-107061000D01*
X123571000Y-107061000D02*
X124333000Y-106299000D01*
D25*
X118606000Y-76821800D02*
X118606000Y-75374000D01*
D24*
X133194000Y-87335000D02*
X134286987Y-87335000D01*
X134286987Y-87335000D02*
X134327987Y-87376000D01*
X115570000Y-86106000D02*
X115641000Y-86035000D01*
X115641000Y-86035000D02*
X117954000Y-86035000D01*
X118606000Y-76821800D02*
X118606000Y-80276000D01*
X118606000Y-80276000D02*
X115062000Y-83820000D01*
X133194000Y-86035000D02*
X132190000Y-86035000D01*
X132190000Y-87335000D02*
X133194000Y-87335000D01*
X132190000Y-86035000D02*
X132116999Y-86108001D01*
X132116999Y-86108001D02*
X132116999Y-87261999D01*
X132116999Y-87261999D02*
X132190000Y-87335000D01*
X133194000Y-96703000D02*
X134792127Y-96703000D01*
X134792127Y-96703000D02*
X134815117Y-96680010D01*
X119598081Y-96703000D02*
X119707011Y-96811930D01*
X117954000Y-96703000D02*
X119598081Y-96703000D01*
X119309000Y-86035000D02*
X119380000Y-86106000D01*
X117954000Y-86035000D02*
X119309000Y-86035000D01*
X125984000Y-122174000D02*
X126746000Y-122936000D01*
X119761000Y-113715800D02*
X119761000Y-119761000D01*
X119761000Y-119761000D02*
X119888000Y-119888000D01*
X118491000Y-113715800D02*
X118491000Y-112991900D01*
X118491000Y-112991900D02*
X119084701Y-112398199D01*
X119084701Y-112398199D02*
X119591839Y-112398199D01*
X119591839Y-112398199D02*
X120603039Y-111386999D01*
X120603039Y-111386999D02*
X121204961Y-111386999D01*
X121204961Y-111386999D02*
X121624701Y-111806739D01*
X121624701Y-111806739D02*
X121624701Y-115274701D01*
X121624701Y-115274701D02*
X129286000Y-122936000D01*
X118491000Y-113715800D02*
X118491000Y-113139898D01*
X117221000Y-115445534D02*
X117564742Y-115789276D01*
X117221000Y-113715800D02*
X117221000Y-115445534D01*
X115951000Y-115447796D02*
X118361602Y-117858398D01*
X129605021Y-118175021D02*
X125476000Y-118175021D01*
X134366000Y-122936000D02*
X129605021Y-118175021D01*
X115951000Y-113715800D02*
X115951000Y-115447796D01*
D25*
X155575000Y-88265000D02*
X155575000Y-90297000D01*
X155575000Y-90297000D02*
X155956000Y-90678000D01*
X154780000Y-84455000D02*
X155255000Y-84455000D01*
X156174250Y-87366030D02*
X155575000Y-87965280D01*
X155255000Y-84455000D02*
X156174250Y-85374250D01*
X156174250Y-85374250D02*
X156174250Y-87366030D01*
X155575000Y-87965280D02*
X155575000Y-88265000D01*
D24*
X155956000Y-90678000D02*
X155956000Y-91948000D01*
X158429960Y-97536000D02*
X165862000Y-97536000D01*
X165862000Y-97536000D02*
X166116000Y-97790000D01*
X166116000Y-100330000D02*
X158683960Y-100330000D01*
X158683960Y-100330000D02*
X158429960Y-100076000D01*
X166116000Y-105410000D02*
X158683960Y-105410000D01*
X158683960Y-105410000D02*
X158429960Y-105156000D01*
X124841000Y-108788200D02*
X144602200Y-108788200D01*
X144602200Y-108788200D02*
X158750000Y-122936000D01*
X124841000Y-113715800D02*
X146989800Y-113715800D01*
X146989800Y-113715800D02*
X156210000Y-122936000D01*
X144660999Y-116466999D02*
X151130000Y-122936000D01*
X122301000Y-113715800D02*
X122301000Y-114960400D01*
X122301000Y-114960400D02*
X123807599Y-116466999D01*
X123807599Y-116466999D02*
X144660999Y-116466999D01*
X123571000Y-113715800D02*
X123571000Y-115443000D01*
X146304000Y-115570000D02*
X153670000Y-122936000D01*
X123698000Y-115570000D02*
X146304000Y-115570000D01*
X123571000Y-115443000D02*
X123698000Y-115570000D01*
X139720320Y-100838000D02*
X126393000Y-100838000D01*
X126393000Y-100838000D02*
X124858000Y-99303000D01*
X124858000Y-99303000D02*
X123854000Y-99303000D01*
X153924000Y-114741960D02*
X153624280Y-114741960D01*
X153624280Y-114741960D02*
X139720320Y-100838000D01*
X156530040Y-115316000D02*
X154498040Y-115316000D01*
X154498040Y-115316000D02*
X153924000Y-114741960D01*
X139094000Y-99303000D02*
X143565040Y-99303000D01*
X143565040Y-99303000D02*
X153021030Y-108758990D01*
X153021030Y-108758990D02*
X153021030Y-109058710D01*
X153021030Y-109058710D02*
X153624280Y-109661960D01*
X153624280Y-109661960D02*
X153924000Y-109661960D01*
X156530040Y-110236000D02*
X154498040Y-110236000D01*
X154498040Y-110236000D02*
X153924000Y-109661960D01*
X123854000Y-88635000D02*
X124379000Y-88635000D01*
X128599692Y-89114000D02*
X132778671Y-93292979D01*
X124379000Y-88635000D02*
X124858000Y-89114000D01*
X124858000Y-89114000D02*
X128599692Y-89114000D01*
X132778671Y-93292979D02*
X138276047Y-93292979D01*
X138276047Y-93292979D02*
X139184067Y-94200999D01*
X139184067Y-94200999D02*
X143243319Y-94200999D01*
X153624280Y-104581960D02*
X153924000Y-104581960D01*
X143243319Y-94200999D02*
X153624280Y-104581960D01*
X156530040Y-105156000D02*
X154498040Y-105156000D01*
X154498040Y-105156000D02*
X153924000Y-104581960D01*
X139094000Y-88635000D02*
X143057040Y-88635000D01*
X143057040Y-88635000D02*
X153021030Y-98598990D01*
X153021030Y-98598990D02*
X153021030Y-98898710D01*
X153021030Y-98898710D02*
X153624280Y-99501960D01*
X153624280Y-99501960D02*
X153924000Y-99501960D01*
X156530040Y-100076000D02*
X154498040Y-100076000D01*
X154498040Y-100076000D02*
X153924000Y-99501960D01*
X153924000Y-112842040D02*
X153624280Y-112842040D01*
X153624280Y-112842040D02*
X140637241Y-99855001D01*
X140637241Y-99855001D02*
X126060001Y-99855001D01*
X126060001Y-99855001D02*
X124858000Y-98653000D01*
X124858000Y-98653000D02*
X123854000Y-98653000D01*
X153924000Y-112842040D02*
X156464000Y-112842040D01*
X156464000Y-112842040D02*
X156530040Y-112776000D01*
X153021030Y-107762040D02*
X153924000Y-107762040D01*
X141034962Y-98653000D02*
X143911990Y-98653000D01*
X143911990Y-98653000D02*
X153021030Y-107762040D01*
X140116001Y-98671001D02*
X141016961Y-98671001D01*
X140098000Y-98653000D02*
X140116001Y-98671001D01*
X141016961Y-98671001D02*
X141034962Y-98653000D01*
X139094000Y-98653000D02*
X140098000Y-98653000D01*
X153924000Y-107762040D02*
X156464000Y-107762040D01*
X156464000Y-107762040D02*
X156530040Y-107696000D01*
X153021030Y-102682040D02*
X153924000Y-102682040D01*
X144085978Y-93746988D02*
X153021030Y-102682040D01*
X132966728Y-92838968D02*
X138464104Y-92838968D01*
X139372124Y-93746988D02*
X144085978Y-93746988D01*
X128717771Y-88590011D02*
X132966728Y-92838968D01*
X125463011Y-88590011D02*
X128717771Y-88590011D01*
X124858000Y-87985000D02*
X125463011Y-88590011D01*
X138464104Y-92838968D02*
X139372124Y-93746988D01*
X123854000Y-87985000D02*
X124858000Y-87985000D01*
X153924000Y-102682040D02*
X156464000Y-102682040D01*
X156464000Y-102682040D02*
X156530040Y-102616000D01*
X153021030Y-97602040D02*
X153924000Y-97602040D01*
X143421992Y-88003002D02*
X153021030Y-97602040D01*
X140116002Y-88003002D02*
X143421992Y-88003002D01*
X140098000Y-87985000D02*
X140116002Y-88003002D01*
X139094000Y-87985000D02*
X140098000Y-87985000D01*
X156530040Y-97536000D02*
X155926790Y-97536000D01*
X155926790Y-97536000D02*
X155860750Y-97602040D01*
X155860750Y-97602040D02*
X153924000Y-97602040D01*
X158429960Y-115316000D02*
X165862000Y-115316000D01*
X165862000Y-115316000D02*
X166116000Y-115570000D01*
X158429960Y-112776000D02*
X165862000Y-112776000D01*
X165862000Y-112776000D02*
X166116000Y-113030000D01*
X158429960Y-110236000D02*
X165862000Y-110236000D01*
X165862000Y-110236000D02*
X166116000Y-110490000D01*
X158429960Y-107696000D02*
X165862000Y-107696000D01*
X165862000Y-107696000D02*
X166116000Y-107950000D01*
M02*
