M48
INCH,TZ
T10C0.012
T11C0.039
T12C0.040
T13C0.051
T14C0.108
%
T10
X044900Y-49100
X045300Y-33000
X045500Y-33900
X045700Y-31000
X045700Y-33100
X045700Y-37200
X046000Y-34119
X046285Y-45586
X046599Y-46401
X046700Y-43500
X047000Y-33585
X047000Y-33900
X047000Y-36800
X047000Y-38430
X047129Y-37800
X047129Y-38115
X047200Y-47200
X047600Y-44100
X047700Y-37800
X047800Y-33600
X048200Y-38600
X048526Y-31074
X048600Y-41800
X048700Y-40300
X048950Y-41850
X049100Y-39800
X049400Y-34400
X049400Y-37800
X049400Y-46526
X049723Y-35377
X049800Y-33100
X050100Y-33600
X050100Y-37400
X051700Y-32200
X051700Y-33100
X051800Y-37300
X052885Y-34400
X052900Y-32600
X052961Y-38356
X053077Y-38063
X053200Y-34400
X053300Y-32900
X053400Y-36100
X053400Y-38000
X053500Y-38700
X053625Y-33858
X053677Y-37564
X053700Y-30954
X053700Y-34400
X053900Y-32900
X054400Y-30450
X054800Y-32600
X054950Y-32050
X055300Y-49100
X055400Y-38600
X055418Y-33357
X055500Y-34400
X055674Y-31126
X056288Y-34012
X058050Y-33300
X058055Y-34614
X058981Y-30856
X059800Y-30853
X060075Y-32775
X060700Y-30800
X060800Y-35300
X061000Y-31100
X061075Y-31775
X061600Y-30853
X061900Y-31100
X063200Y-34600
X064500Y-35300
T11
X065400Y-32400
X065400Y-33400
X065400Y-34400
X065400Y-35400
X065400Y-36400
T12
X044695Y-28675
X044695Y-29675
X045695Y-28675
X045695Y-29675
X046695Y-28675
X046695Y-29675
X047695Y-28675
X047695Y-29675
X048695Y-28675
X048695Y-29675
X049695Y-28675
X049695Y-29675
X050695Y-28675
X050695Y-29675
X051695Y-28675
X051695Y-29675
X052695Y-28675
X052695Y-29675
X053695Y-28675
X053695Y-29675
X054695Y-28675
X054695Y-29675
X055695Y-28675
X055695Y-29675
X056695Y-28675
X056695Y-29675
X057695Y-28675
X057695Y-29675
X058695Y-28675
X058695Y-29675
X059695Y-28675
X059695Y-29675
X060695Y-28675
X060695Y-29675
X061400Y-36200
X061695Y-28675
X061695Y-29675
X062400Y-36200
X062695Y-28675
X062695Y-29675
X063695Y-28675
X063695Y-29675
T13
X045900Y-48400
X046900Y-48400
X047900Y-48400
X048900Y-48400
X049900Y-48400
X050900Y-48400
X051900Y-48400
X052900Y-48400
X055500Y-48400
X056500Y-48400
X057500Y-48400
X058500Y-48400
X059500Y-48400
X060500Y-48400
X061500Y-48400
X062500Y-48400
X065400Y-38500
X065400Y-39500
X065400Y-40500
X065400Y-41500
X065400Y-42500
X065400Y-43500
X065400Y-44500
X065400Y-45500
T14
X042778Y-29175
X042778Y-48466
X065613Y-29175
X065613Y-48466
M30

